                 6 ]                                                       _a)6 
                 )?P'\/                                                 _a/P  ] 
                   6  ]_                                                P ]4aJ' 
                    ??4P?f/                                          J?Q/aP     
                       \aP ?\a                                     aj  f)'      
                         \aaQ)\ /                                 P )6a'        
                            )aaP?\_/                          _Q\/6a7           
                              '\ajf)a/                      _ f  4 ?            
                                  6aW)7)/                  j'4]aa'              
                                    )7[ j      _??4/       f ]                  
                                      )a?a     f   f      a\aJ                  
                                         )4a   f' 'f   _j?'                     
                                           )4/ \/ j( aP?                        
                                                ??' P'                          
                                                                                
                                                ]                               
                                                ]                               
                                                ]                               
                                               _ff                              
                                               J ]/                             
                                              ]'  6                             
                                              ]   ]                             
                                                                                
                                                                                
